{
    "data": {
        "current_page": 1,
        "data": [
            {
                "id": 1,
                "device_id": 445,
                "description": "Alias quas iusto laboriosam architecto recusandae et. Doloremque nobis quia facilis perferendis quas. Consequatur explicabo in labore nostrum explicabo. Necessitatibus ipsa rerum deserunt enim unde.",
                "evaluation": 3,
                "improvements": "Voluptas inventore quo fugit cumque cum est expedita. Illum at et qui odio illum. Dignissimos ut et et repellendus non esse voluptas sed. Dolor qui porro vitae impedit.\n\nRerum sint eveniet est maiores ad. Dignissimos nesciunt nihil ratione cum repellendus. Quo eius dolor sequi cum dicta laboriosam. Delectus sit nemo tempora omnis voluptatibus autem molestiae.",
                "created_at": "2025-03-17T20:49:55.000000Z",
                "updated_at": "2025-03-17T20:49:55.000000Z",
                "platform": "IOS"
            },
            {
                "id": 2,
                "device_id": 145,
                "description": "Dolores minus voluptatum saepe cumque architecto quibusdam autem. In laborum fugiat harum a voluptatem corporis recusandae. Ut et illum libero incidunt perferendis sit.",
                "evaluation": 2,
                "improvements": "Adipisci qui et minima. Saepe quos deleniti amet qui qui ut. Animi est vel molestiae maxime libero.\n\nBlanditiis ratione corrupti voluptas et dolorem. Quia quas quibusdam quia ea mollitia dolor facere.",
                "created_at": "2025-03-17T20:49:55.000000Z",
                "updated_at": "2025-03-17T20:49:55.000000Z",
                "platform": "ANDROID"
            },
            {
                "id": 3,
                "device_id": 79,
                "description": "Recusandae distinctio numquam laudantium sed est. Sunt sit atque deserunt quos repudiandae. Quia consequatur mollitia pariatur. Dolore in eligendi debitis reiciendis sint architecto atque. Perspiciatis harum rerum velit incidunt quia porro.",
                "evaluation": 1,
                "improvements": "Veniam ea debitis distinctio omnis quo. Nemo aspernatur aut vero sit velit aliquam. Et similique molestiae consequuntur ratione.\n\nMaiores id voluptatem excepturi voluptates itaque. Sed sint temporibus ratione sequi eius quibusdam repellat. Laboriosam in et et. Sunt cupiditate esse ipsa et est.",
                "created_at": "2025-03-17T20:49:55.000000Z",
                "updated_at": "2025-03-17T20:49:55.000000Z",
                "platform": "ANDROID"
            },
            {
                "id": 4,
                "device_id": 493,
                "description": "Eos dolorem quod explicabo numquam mollitia illum. Omnis nemo est ea quia sint provident. Similique minus accusantium eos voluptatum libero quam nulla est.",
                "evaluation": 3,
                "improvements": "Error quae dolorem est qui praesentium dolores. Veritatis et quia ea tempora aut. Nihil ullam at illo.\n\nNihil ab tempora ipsum doloremque. Corporis placeat quis odio molestias maxime rem. Officiis eos reprehenderit reprehenderit dolorum quia hic iusto. Libero deleniti nesciunt amet rerum provident ea.",
                "created_at": "2025-03-17T20:49:55.000000Z",
                "updated_at": "2025-03-17T20:49:55.000000Z",
                "platform": "ANDROID"
            },
            {
                "id": 5,
                "device_id": 350,
                "description": "Qui quod deleniti velit. Aut sint et sed eos eveniet ratione. Autem odio voluptas vitae officia.",
                "evaluation": 4,
                "improvements": "Vel quia qui sit harum ratione atque error porro. Ipsa in veritatis eius corporis eos ut. Eius temporibus molestiae facere ut dolor harum qui. Delectus voluptatibus et tempore ipsam est.\n\nFacere consequatur dolor delectus et non quis libero. Rem qui rem possimus cupiditate aut fugiat. Quod voluptas perspiciatis at suscipit qui quia. Accusamus praesentium ratione ut autem. Excepturi voluptatem qui cum quod cumque id.",
                "created_at": "2025-03-17T20:49:56.000000Z",
                "updated_at": "2025-03-17T20:49:56.000000Z",
                "platform": "IOS"
            },
            {
                "id": 6,
                "device_id": 416,
                "description": "Et commodi enim nostrum in. Dolorum provident hic voluptas consequuntur. Molestias possimus sapiente quas blanditiis.",
                "evaluation": 1,
                "improvements": "Autem omnis et quia et ipsum suscipit. Voluptas eveniet modi officiis ad quia nam velit. Vel vel voluptatem et dolorem inventore fugit beatae.\n\nOdio alias quam ratione non quibusdam quis fugit. Saepe ipsam possimus est officia molestiae. Est animi fugit in veritatis est molestiae. Quo a ut soluta ut quasi qui rerum.",
                "created_at": "2025-03-17T20:49:56.000000Z",
                "updated_at": "2025-03-17T20:49:56.000000Z",
                "platform": "ANDROID"
            },
            {
                "id": 7,
                "device_id": 462,
                "description": "Harum eligendi nam accusamus accusantium. Quisquam eos velit iure est a ut nobis. Necessitatibus sit rerum eos accusamus incidunt. Aliquid totam est placeat enim ex. Quis magnam dolorum vitae ut.",
                "evaluation": 4,
                "improvements": "Sit aliquam eum ad quibusdam perferendis est tempora. Expedita aut voluptas sequi. Iusto eaque ratione vitae harum voluptas qui. Sunt ab molestiae nostrum cumque vel dolores. Iure officia provident sed impedit inventore quisquam voluptatem.\n\nVelit impedit ratione laudantium sit exercitationem. Qui nemo est in. Delectus dolor et veniam vel.",
                "created_at": "2025-03-17T20:49:56.000000Z",
                "updated_at": "2025-03-17T20:49:56.000000Z",
                "platform": "IOS"
            },
            {
                "id": 8,
                "device_id": 485,
                "description": "Molestias ea quidem occaecati consequatur quia aspernatur. Quidem dicta blanditiis nihil eum blanditiis ab aspernatur. Est dicta eum voluptatem impedit ratione.",
                "evaluation": 4,
                "improvements": "Dicta autem explicabo inventore iste omnis veritatis odit rerum. Facilis soluta voluptatibus non ipsa amet. Quisquam nihil repudiandae totam vel dolor nam in.\n\nRerum voluptas omnis iure in repellat id. Dolorem ipsa minus natus. Voluptatem porro molestiae dignissimos rem eaque expedita. Sint inventore neque officia harum facilis.",
                "created_at": "2025-03-17T20:49:56.000000Z",
                "updated_at": "2025-03-17T20:49:56.000000Z",
                "platform": "ANDROID"
            },
            {
                "id": 9,
                "device_id": 472,
                "description": "Occaecati tenetur mollitia facere suscipit ut. Velit et corrupti dignissimos sit. Consequatur earum et fugiat non et.",
                "evaluation": 5,
                "improvements": "Quia modi odit rem vel. Eum qui nobis a magni. Occaecati quibusdam cum eaque consequatur voluptate. Mollitia et quia quas commodi sit et vero.\n\nReprehenderit ut omnis eaque dignissimos maiores magni. Aperiam animi architecto eveniet quo amet ut. Ipsum vel maiores quo sint a omnis et. Non laborum dolore itaque officia sint fugiat.",
                "created_at": "2025-03-17T20:49:56.000000Z",
                "updated_at": "2025-03-17T20:49:56.000000Z",
                "platform": "IOS"
            },
            {
                "id": 10,
                "device_id": 393,
                "description": "Exercitationem autem est nihil et facere sunt culpa. Quisquam neque dolore necessitatibus saepe minima recusandae sint. Et placeat minus minus voluptate non porro nostrum.",
                "evaluation": 2,
                "improvements": "Inventore similique sapiente occaecati nihil recusandae autem vero nulla. Et in sed dicta voluptas. Nihil cumque similique odio vel.\n\nEos consequuntur voluptatem necessitatibus aut. Excepturi aperiam officia inventore. Maxime et dolorum magni aut. Ipsam consequatur modi sed illum voluptatibus non.",
                "created_at": "2025-03-17T20:49:56.000000Z",
                "updated_at": "2025-03-17T20:49:56.000000Z",
                "platform": "ANDROID"
            },
            {
                "id": 11,
                "device_id": 499,
                "description": "Sit vel sapiente in quisquam adipisci cumque pariatur dolores. Voluptas illo voluptatum mollitia esse voluptatum. Expedita ut quaerat ut ad.",
                "evaluation": 4,
                "improvements": "Iste est iste mollitia voluptate aspernatur. Explicabo et molestias sint sint omnis. Delectus maxime eos voluptatem at.\n\nIllum ducimus repudiandae officiis. Autem molestias magnam aperiam. Rerum laborum vitae aut reprehenderit.",
                "created_at": "2025-03-17T20:49:57.000000Z",
                "updated_at": "2025-03-17T20:49:57.000000Z",
                "platform": "ANDROID"
            },
            {
                "id": 12,
                "device_id": 26,
                "description": "Neque ducimus sint nostrum sint optio odit distinctio occaecati. Animi eum soluta facere. Repellat dolore dignissimos repellat laborum.",
                "evaluation": 2,
                "improvements": "Autem omnis magnam non accusantium. Est culpa iusto et voluptates est praesentium error. Suscipit nulla optio aut omnis.\n\nEnim consequatur doloremque veritatis mollitia totam sit. In quia eveniet est. Ad facilis quis officiis eos fuga necessitatibus voluptatum. Velit corrupti vel rerum et ipsum.",
                "created_at": "2025-03-17T20:49:57.000000Z",
                "updated_at": "2025-03-17T20:49:57.000000Z",
                "platform": "IOS"
            },
            {
                "id": 13,
                "device_id": 42,
                "description": "Eligendi tenetur qui beatae sit adipisci omnis dolore. Aspernatur quaerat est fuga sapiente minima mollitia ea. Aut explicabo laudantium et officia omnis voluptatibus.",
                "evaluation": 4,
                "improvements": "Itaque deserunt delectus quos. Quia alias eum accusamus adipisci. Est aut consequatur ipsa illo porro.\n\nCorporis vel reiciendis modi impedit quo voluptas. Quibusdam labore porro quaerat voluptas est. Qui quis adipisci recusandae illo eaque perspiciatis quia sunt. Consequatur iste eligendi nostrum ratione. Veniam nemo alias nesciunt explicabo sint voluptas.",
                "created_at": "2025-03-17T20:49:58.000000Z",
                "updated_at": "2025-03-17T20:49:58.000000Z",
                "platform": "ANDROID"
            },
            {
                "id": 14,
                "device_id": 112,
                "description": "Assumenda temporibus atque dolorem et soluta. Architecto ea veritatis est voluptatem explicabo illum veritatis. Neque nobis beatae nemo voluptatem.",
                "evaluation": 3,
                "improvements": "Magnam dolores magni aut. Eos itaque in omnis et in. Inventore distinctio beatae occaecati natus ea placeat. Perferendis quidem cum aliquam minima sequi id.\n\nRepellendus nulla similique ut ullam quam. Et qui qui a nisi praesentium adipisci tempore. Qui distinctio quasi distinctio id maxime et ex. Quasi ut temporibus assumenda repellat. Nihil distinctio velit ut porro.",
                "created_at": "2025-03-17T20:49:58.000000Z",
                "updated_at": "2025-03-17T20:49:58.000000Z",
                "platform": "IOS"
            },
            {
                "id": 15,
                "device_id": 238,
                "description": "Dicta fugit aut aut officiis quo quia. Magni assumenda provident porro consectetur. Voluptatem voluptas modi voluptas quisquam. Voluptatum voluptatem voluptas voluptas autem.",
                "evaluation": 3,
                "improvements": "Quibusdam debitis beatae fugiat maxime est. Necessitatibus rerum molestias sit consectetur. Velit omnis illum minima a. Id distinctio aut architecto ab sint.\n\nAdipisci non dolores tenetur voluptatibus omnis. Deserunt delectus ut tenetur assumenda. Aut soluta saepe voluptates recusandae odio earum. Iure suscipit velit necessitatibus commodi.",
                "created_at": "2025-03-17T20:49:58.000000Z",
                "updated_at": "2025-03-17T20:49:58.000000Z",
                "platform": "IOS"
            }
        ],
        "first_page_url": "http:\/\/localhost:8080\/api\/v1\/evaluations?page=1",
        "from": 1,
        "last_page": 36,
        "last_page_url": "http:\/\/localhost:8080\/api\/v1\/evaluations?page=36",
        "links": [
            {
                "url": null,
                "label": "&laquo; Previous",
                "active": false
            },
            {
                "url": "http:\/\/localhost:8080\/api\/v1\/evaluations?page=1",
                "label": "1",
                "active": true
            },
            {
                "url": "http:\/\/localhost:8080\/api\/v1\/evaluations?page=2",
                "label": "2",
                "active": false
            },
            {
                "url": "http:\/\/localhost:8080\/api\/v1\/evaluations?page=3",
                "label": "3",
                "active": false
            },
            {
                "url": "http:\/\/localhost:8080\/api\/v1\/evaluations?page=4",
                "label": "4",
                "active": false
            },
            {
                "url": "http:\/\/localhost:8080\/api\/v1\/evaluations?page=5",
                "label": "5",
                "active": false
            },
            {
                "url": "http:\/\/localhost:8080\/api\/v1\/evaluations?page=6",
                "label": "6",
                "active": false
            },
            {
                "url": "http:\/\/localhost:8080\/api\/v1\/evaluations?page=7",
                "label": "7",
                "active": false
            },
            {
                "url": "http:\/\/localhost:8080\/api\/v1\/evaluations?page=8",
                "label": "8",
                "active": false
            },
            {
                "url": "http:\/\/localhost:8080\/api\/v1\/evaluations?page=9",
                "label": "9",
                "active": false
            },
            {
                "url": "http:\/\/localhost:8080\/api\/v1\/evaluations?page=10",
                "label": "10",
                "active": false
            },
            {
                "url": null,
                "label": "...",
                "active": false
            },
            {
                "url": "http:\/\/localhost:8080\/api\/v1\/evaluations?page=35",
                "label": "35",
                "active": false
            },
            {
                "url": "http:\/\/localhost:8080\/api\/v1\/evaluations?page=36",
                "label": "36",
                "active": false
            },
            {
                "url": "http:\/\/localhost:8080\/api\/v1\/evaluations?page=2",
                "label": "Next &raquo;",
                "active": false
            }
        ],
        "next_page_url": "http:\/\/localhost:8080\/api\/v1\/evaluations?page=2",
        "path": "http:\/\/localhost:8080\/api\/v1\/evaluations",
        "per_page": 15,
        "prev_page_url": null,
        "to": 15,
        "total": 540
    }
}